{"failedCount":0,"prefixedPath":"classpath:reqresAPI\/feature\/GET.feature","packageQualifiedName":"reqresAPI.feature.GET","loopIndex":-1,"relativePath":"reqresAPI\/feature\/GET.feature","scenarioResults":[{"sectionIndex":0,"stepResults":[{"result":{"nanos":423700,"millis":0.4237,"status":"passed"},"step":{"background":true,"line":4,"prefix":"Given","index":0,"text":"url apiUrl"},"stepLog":"13:33:45.148 karate.env system property was: null \n"},{"result":{"nanos":2042400,"millis":2.0424,"status":"passed"},"step":{"line":7,"prefix":"Given","index":0,"text":"param page = 2"}},{"result":{"nanos":1499147700,"millis":1499.1477,"status":"passed"},"step":{"line":8,"prefix":"When","index":1,"text":"method GET"},"stepLog":"13:33:45.851 request:\n1 > GET https:\/\/reqres.in\/api\/users?page=2\n1 > Host: reqres.in\n1 > Connection: Keep-Alive\n1 > User-Agent: Apache-HttpClient\/4.5.13 (Java\/17.0.2)\n1 > Accept-Encoding: gzip,deflate\n\n\n13:33:46.648 response time in milliseconds: 794\n1 < 200\n1 < Date: Wed, 13 Jul 2022 08:03:46 GMT\n1 < Content-Type: application\/json; charset=utf-8\n1 < Transfer-Encoding: chunked\n1 < Connection: keep-alive\n1 < X-Powered-By: Express\n1 < Access-Control-Allow-Origin: *\n1 < Etag: W\/\"406-ut0vzoCuidvyMf8arZpMpJ6ZRDw\"\n1 < Via: 1.1 vegur\n1 < Cache-Control: max-age=14400\n1 < CF-Cache-Status: HIT\n1 < Age: 4458\n1 < Expect-CT: max-age=604800, report-uri=\"https:\/\/report-uri.cloudflare.com\/cdn-cgi\/beacon\/expect-ct\"\n1 < Report-To: {\"endpoints\":[{\"url\":\"https:\\\/\\\/a.nel.cloudflare.com\\\/report\\\/v3?s=VWBAl5fgiS4X36APnoxPKyClltChGEOstCMeOoFStan6F9e6FkDEo9kWvBmefZjJ5L0kaJ4c1BfMRygiOQg1UDOWsQRb1u%2FJMXIgjnQNEDrMNo%2BT34LAayxANQ%3D%3D\"}],\"group\":\"cf-nel\",\"max_age\":604800}\n1 < NEL: {\"success_fraction\":0,\"report_to\":\"cf-nel\",\"max_age\":604800}\n1 < Vary: Accept-Encoding\n1 < Server: cloudflare\n1 < CF-RAY: 72a08107a93f4aba-SIN\n{\"page\":2,\"per_page\":6,\"total\":12,\"total_pages\":2,\"data\":[{\"id\":7,\"email\":\"michael.lawson@reqres.in\",\"first_name\":\"Michael\",\"last_name\":\"Lawson\",\"avatar\":\"https:\/\/reqres.in\/img\/faces\/7-image.jpg\"},{\"id\":8,\"email\":\"lindsay.ferguson@reqres.in\",\"first_name\":\"Lindsay\",\"last_name\":\"Ferguson\",\"avatar\":\"https:\/\/reqres.in\/img\/faces\/8-image.jpg\"},{\"id\":9,\"email\":\"tobias.funke@reqres.in\",\"first_name\":\"Tobias\",\"last_name\":\"Funke\",\"avatar\":\"https:\/\/reqres.in\/img\/faces\/9-image.jpg\"},{\"id\":10,\"email\":\"byron.fields@reqres.in\",\"first_name\":\"Byron\",\"last_name\":\"Fields\",\"avatar\":\"https:\/\/reqres.in\/img\/faces\/10-image.jpg\"},{\"id\":11,\"email\":\"george.edwards@reqres.in\",\"first_name\":\"George\",\"last_name\":\"Edwards\",\"avatar\":\"https:\/\/reqres.in\/img\/faces\/11-image.jpg\"},{\"id\":12,\"email\":\"rachel.howell@reqres.in\",\"first_name\":\"Rachel\",\"last_name\":\"Howell\",\"avatar\":\"https:\/\/reqres.in\/img\/faces\/12-image.jpg\"}],\"support\":{\"url\":\"https:\/\/reqres.in\/#support-heading\",\"text\":\"To keep ReqRes free, contributions towards server costs are appreciated!\"}}\n\n"},{"result":{"nanos":18300,"millis":0.0183,"status":"passed"},"step":{"line":9,"prefix":"Then","index":2,"text":"status 200"}},{"result":{"nanos":5183700,"millis":5.1837,"status":"passed"},"step":{"line":10,"prefix":"And","index":3,"text":"print response"},"stepLog":"13:33:46.657 [print] {\n  \"page\": 2,\n  \"per_page\": 6,\n  \"total\": 12,\n  \"total_pages\": 2,\n  \"data\": [\n    {\n      \"id\": 7,\n      \"email\": \"michael.lawson@reqres.in\",\n      \"first_name\": \"Michael\",\n      \"last_name\": \"Lawson\",\n      \"avatar\": \"https:\/\/reqres.in\/img\/faces\/7-image.jpg\"\n    },\n    {\n      \"id\": 8,\n      \"email\": \"lindsay.ferguson@reqres.in\",\n      \"first_name\": \"Lindsay\",\n      \"last_name\": \"Ferguson\",\n      \"avatar\": \"https:\/\/reqres.in\/img\/faces\/8-image.jpg\"\n    },\n    {\n      \"id\": 9,\n      \"email\": \"tobias.funke@reqres.in\",\n      \"first_name\": \"Tobias\",\n      \"last_name\": \"Funke\",\n      \"avatar\": \"https:\/\/reqres.in\/img\/faces\/9-image.jpg\"\n    },\n    {\n      \"id\": 10,\n      \"email\": \"byron.fields@reqres.in\",\n      \"first_name\": \"Byron\",\n      \"last_name\": \"Fields\",\n      \"avatar\": \"https:\/\/reqres.in\/img\/faces\/10-image.jpg\"\n    },\n    {\n      \"id\": 11,\n      \"email\": \"george.edwards@reqres.in\",\n      \"first_name\": \"George\",\n      \"last_name\": \"Edwards\",\n      \"avatar\": \"https:\/\/reqres.in\/img\/faces\/11-image.jpg\"\n    },\n    {\n      \"id\": 12,\n      \"email\": \"rachel.howell@reqres.in\",\n      \"first_name\": \"Rachel\",\n      \"last_name\": \"Howell\",\n      \"avatar\": \"https:\/\/reqres.in\/img\/faces\/12-image.jpg\"\n    }\n  ],\n  \"support\": {\n    \"url\": \"https:\/\/reqres.in\/#support-heading\",\n    \"text\": \"To keep ReqRes free, contributions towards server costs are appreciated!\"\n  }\n}\n \n"},{"result":{"nanos":2902400,"millis":2.9024,"status":"passed"},"step":{"line":11,"prefix":"And","index":4,"text":"match response.data[1].first_name contains 'Lindsay'"}},{"result":{"nanos":1379000,"millis":1.379,"status":"passed"},"step":{"line":12,"prefix":"And","index":5,"text":"match response.data[2].last_name !contains 'Rachel'"}},{"result":{"nanos":1317500,"millis":1.3175,"status":"passed"},"step":{"line":13,"prefix":"And","index":6,"text":"match response.data == \"#array\""}},{"result":{"nanos":1361900,"millis":1.3619,"status":"passed"},"step":{"line":14,"prefix":"And","index":7,"text":"match response.per_page == \"#number\""}},{"result":{"nanos":17596700,"millis":17.5967,"status":"passed"},"step":{"line":15,"prefix":"And","index":8,"text":"match response.data == \"#[6]\""}},{"result":{"nanos":954300,"millis":0.9543,"status":"passed"},"step":{"line":16,"prefix":"And","index":9,"text":"match response.total_pages == 2"}},{"result":{"nanos":1906700,"millis":1.9067,"status":"passed"},"step":{"line":17,"prefix":"And","index":10,"text":"match response.data[*].first_name contains \"Byron\""}}],"executorName":"pool-1-thread-1","line":6,"name":"GET list of users","description":"","durationMillis":1534.2343,"startTime":1657699425145,"failed":false,"refId":"[1:6]","endTime":1657699426686,"exampleIndex":-1},{"sectionIndex":1,"stepResults":[{"result":{"nanos":346900,"millis":0.3469,"status":"passed"},"step":{"background":true,"line":4,"prefix":"Given","index":0,"text":"url apiUrl"},"stepLog":"13:33:45.153 karate.env system property was: null \n"},{"result":{"nanos":1022800,"millis":1.0228,"status":"passed"},"step":{"line":37,"prefix":"Given","index":0,"text":"path '\/2'"}},{"result":{"nanos":1490993800,"millis":1490.9938,"status":"passed"},"step":{"line":38,"prefix":"When","index":1,"text":"method GET"},"stepLog":"13:33:45.850 request:\n1 > GET https:\/\/reqres.in\/api\/users\/2\n1 > Host: reqres.in\n1 > Connection: Keep-Alive\n1 > User-Agent: Apache-HttpClient\/4.5.13 (Java\/17.0.2)\n1 > Accept-Encoding: gzip,deflate\n\n\n13:33:46.647 response time in milliseconds: 792\n1 < 200\n1 < Date: Wed, 13 Jul 2022 08:03:46 GMT\n1 < Content-Type: application\/json; charset=utf-8\n1 < Transfer-Encoding: chunked\n1 < Connection: keep-alive\n1 < X-Powered-By: Express\n1 < Access-Control-Allow-Origin: *\n1 < Etag: W\/\"118-pbdwwFo9SKNhD3Lx5iHJyngpq00\"\n1 < Via: 1.1 vegur\n1 < Cache-Control: max-age=14400\n1 < CF-Cache-Status: HIT\n1 < Age: 3874\n1 < Expect-CT: max-age=604800, report-uri=\"https:\/\/report-uri.cloudflare.com\/cdn-cgi\/beacon\/expect-ct\"\n1 < Report-To: {\"endpoints\":[{\"url\":\"https:\\\/\\\/a.nel.cloudflare.com\\\/report\\\/v3?s=6pUJtxFquuT503c4X%2BcdJUompXqHIYVf%2Fiw9WkJSy9nqCk1t6vrmgzLVpuJyH03%2BWmMp9AHyeBEEz4xVabYMcrYOj4rzdVjEEIisYj0dQrnTHiFmqr4yYbngDA%3D%3D\"}],\"group\":\"cf-nel\",\"max_age\":604800}\n1 < NEL: {\"success_fraction\":0,\"report_to\":\"cf-nel\",\"max_age\":604800}\n1 < Vary: Accept-Encoding\n1 < Server: cloudflare\n1 < CF-RAY: 72a081079a7e899e-SIN\n{\"data\":{\"id\":2,\"email\":\"janet.weaver@reqres.in\",\"first_name\":\"Janet\",\"last_name\":\"Weaver\",\"avatar\":\"https:\/\/reqres.in\/img\/faces\/2-image.jpg\"},\"support\":{\"url\":\"https:\/\/reqres.in\/#support-heading\",\"text\":\"To keep ReqRes free, contributions towards server costs are appreciated!\"}}\n\n"},{"result":{"nanos":35500,"millis":0.0355,"status":"passed"},"step":{"line":39,"prefix":"Then","index":2,"text":"status 200"}},{"result":{"nanos":1980200,"millis":1.9802,"status":"passed"},"step":{"endLine":50,"line":40,"prefix":"And","docString":"{\n    \"id\": \"#number\",\n    \"email\": \"#string\",\n    \"first_name\": \"#string\",\n    \"last_name\": \"#string\",\n    \"avatar\": \"#string\"\n}","index":3,"text":"match response.data =="}}],"executorName":"pool-1-thread-2","line":36,"name":"Get single user","description":"","durationMillis":1494.3792,"startTime":1657699425151,"failed":false,"refId":"[2:36]","endTime":1657699426652,"exampleIndex":-1}],"callDepth":0,"name":"Test for GET method","description":"","resultDate":"2022-07-13 01:33:47 pm","durationMillis":3028.6135,"passedCount":2}